\relax 
\catcode `"\active 
\citation{*}
\select@language{polish}
\@writefile{toc}{\select@language{polish}}
\@writefile{lof}{\select@language{polish}}
\@writefile{lot}{\select@language{polish}}
\@input{rozdzial1.aux}
\@input{rozdzial2.aux}
\@input{rozdzial3.aux}
\@input{rozdzial4.aux}
\@input{rozdzial56.aux}
\@input{dodatekA.aux}
\bibstyle{unsrt}
\bibdata{praca}
\bibcite{Lam92}{1}
\bibcite{Dil00}{2}
\bibcite{Dil01}{3}
\bibcite{Dil02}{4}
\bibcite{Dil03}{5}
\bibcite{Dil04}{6}
\bibcite{Url1}{7}
\bibcite{Url2}{8}
\bibcite{Url3}{9}
\bibcite{Url4}{10}
\bibcite{Manual1}{11}
\bibcite{Manual2}{12}
\bibcite{Manual3}{13}
\@writefile{toc}{\contentsline {chapter}{Bibliografia}{27}}
\bibcite{Manual4}{14}
\bibcite{A1}{15}
\bibcite{Sources}{16}
