\relax 
\@writefile{toc}{\contentsline {chapter}{\numberline {3}Implementacja}{11}}
\@writefile{lof}{\addvspace {10\p@ }}
\@writefile{lot}{\addvspace {10\p@ }}
\@writefile{toc}{\contentsline {section}{\numberline {3.1}Parsowanie danych wej\IeC {\'s}ciowych}{11}}
\@writefile{toc}{\contentsline {section}{\numberline {3.2}Przechowywanie przetwarzanych danych}{12}}
\@writefile{toc}{\contentsline {subsection}{\numberline {3.2.1}Struktura bazy danych}{12}}
\@writefile{lof}{\contentsline {figure}{\numberline {3.1}{\ignorespaces Struktura bazy danych MySQL}}{12}}
\@writefile{toc}{\contentsline {subsection}{\numberline {3.2.2}Biblioteka Hibernate i mapowanie relacyjno-obiektowe}{12}}
\@writefile{toc}{\contentsline {section}{\numberline {3.3}Aplikacja wieloagentowa}{13}}
\@writefile{lof}{\contentsline {figure}{\numberline {3.2}{\ignorespaces Schemat logiki agentowej}}{13}}
\@writefile{toc}{\contentsline {section}{\numberline {3.4}Graficzny interfejs u\IeC {\.z}ytkownika}{14}}
\@writefile{lof}{\contentsline {figure}{\numberline {3.3}{\ignorespaces GUI - widok og\IeC {\'o}lny}}{15}}
\@writefile{lof}{\contentsline {figure}{\numberline {3.4}{\ignorespaces GUI - wyb\IeC {\'o}r danych}}{16}}
\@writefile{lof}{\contentsline {figure}{\numberline {3.5}{\ignorespaces GUI - wyb\IeC {\'o}r zakresu czasowego}}{16}}
\@writefile{lof}{\contentsline {figure}{\numberline {3.6}{\ignorespaces GUI - wy\IeC {\'s}wietlanie predykcji}}{17}}
\@writefile{toc}{\contentsline {section}{\numberline {3.5}Przygotowanie i analiza danych}{17}}
\@setckpt{rozdzial3}{
\setcounter{page}{19}
\setcounter{equation}{0}
\setcounter{enumi}{0}
\setcounter{enumii}{0}
\setcounter{enumiii}{0}
\setcounter{enumiv}{0}
\setcounter{footnote}{0}
\setcounter{mpfootnote}{0}
\setcounter{part}{0}
\setcounter{chapter}{3}
\setcounter{section}{5}
\setcounter{subsection}{0}
\setcounter{subsubsection}{0}
\setcounter{paragraph}{0}
\setcounter{subparagraph}{0}
\setcounter{figure}{6}
\setcounter{table}{0}
\setcounter{lofdepth}{1}
\setcounter{lotdepth}{1}
\setcounter{lstnumber}{1}
\setcounter{lstlisting}{0}
}
