\relax 
\citation{Dil03}
\@writefile{toc}{\contentsline {chapter}{\numberline {2}Teoria}{7}}
\@writefile{lof}{\addvspace {10\p@ }}
\@writefile{lot}{\addvspace {10\p@ }}
\newlabel{cha:theory}{{2}{7}}
\@writefile{toc}{\contentsline {section}{\numberline {2.1}Eksploracja danych (WEKA)}{7}}
\@writefile{lof}{\contentsline {figure}{\numberline {2.1}{\ignorespaces Weka Explorer}}{8}}
\@writefile{toc}{\contentsline {section}{\numberline {2.2}Systemy wieloagentowe (JADE)}{8}}
\@setckpt{rozdzial2}{
\setcounter{page}{11}
\setcounter{equation}{0}
\setcounter{enumi}{0}
\setcounter{enumii}{0}
\setcounter{enumiii}{0}
\setcounter{enumiv}{0}
\setcounter{footnote}{0}
\setcounter{mpfootnote}{0}
\setcounter{part}{0}
\setcounter{chapter}{2}
\setcounter{section}{2}
\setcounter{subsection}{0}
\setcounter{subsubsection}{0}
\setcounter{paragraph}{0}
\setcounter{subparagraph}{0}
\setcounter{figure}{1}
\setcounter{table}{0}
\setcounter{lofdepth}{1}
\setcounter{lotdepth}{1}
\setcounter{lstnumber}{1}
\setcounter{lstlisting}{0}
}
