\relax 
\@writefile{toc}{\contentsline {chapter}{\numberline {4}Analiza zebranych danych}{19}}
\@writefile{lof}{\addvspace {10\p@ }}
\@writefile{lot}{\addvspace {10\p@ }}
\@writefile{toc}{\contentsline {section}{\numberline {4.1}Badanie korelacji pomi\IeC {\k e}dzy parametrami}{19}}
\@writefile{lof}{\contentsline {figure}{\numberline {4.1}{\ignorespaces Korelacja pomi\IeC {\k e}dzy PM10 a warunkami meteoroligicznymi}}{20}}
\@writefile{toc}{\contentsline {section}{\numberline {4.2}Badanie korelacji parametr\IeC {\'o}w w zale\IeC {\.z}no\IeC {\'s}ci od odleg\IeC {\l }o\IeC {\'s}ci mi\IeC {\k e}dzy stacjami}{20}}
\@writefile{lof}{\contentsline {figure}{\numberline {4.2}{\ignorespaces Korelacja pomi\IeC {\k e}dzy PM10 a innymi ska\IeC {\.z}eniami powietrza}}{21}}
\@writefile{lot}{\contentsline {table}{\numberline {4.1}{\ignorespaces Wsp\IeC {\'o}\IeC {\l }czynniki korelacji parametru PM10 pomi\IeC {\k e}dzy stacjami pomiarowymi}}{21}}
\@writefile{toc}{\contentsline {section}{\numberline {4.3}Predykcja danych}{22}}
\@writefile{lof}{\contentsline {figure}{\numberline {4.3}{\ignorespaces Wz\IeC {\'o}r MAPE}}{23}}
\@writefile{lof}{\contentsline {figure}{\numberline {4.4}{\ignorespaces B\IeC {\l }\IeC {\k a}d predykcji bez dodatkowych parametr\IeC {\'o}w}}{23}}
\@writefile{lof}{\contentsline {figure}{\numberline {4.5}{\ignorespaces B\IeC {\l }\IeC {\k a}d predykcji z dodatkowymi parametrami}}{24}}
\@setckpt{rozdzial4}{
\setcounter{page}{25}
\setcounter{equation}{0}
\setcounter{enumi}{0}
\setcounter{enumii}{0}
\setcounter{enumiii}{0}
\setcounter{enumiv}{0}
\setcounter{footnote}{0}
\setcounter{mpfootnote}{0}
\setcounter{part}{0}
\setcounter{chapter}{4}
\setcounter{section}{3}
\setcounter{subsection}{0}
\setcounter{subsubsection}{0}
\setcounter{paragraph}{0}
\setcounter{subparagraph}{0}
\setcounter{figure}{5}
\setcounter{table}{1}
\setcounter{lofdepth}{1}
\setcounter{lotdepth}{1}
\setcounter{lstnumber}{1}
\setcounter{lstlisting}{0}
}
