﻿Załącznik nr 2

Log predyktora


23:01:51,501  INFO WekaAgent:410 - Prediction: 2014-11-23 11:00 - 55.9 47.5 17.68%
23:01:51,501  INFO WekaAgent:410 - Prediction: 2014-11-23 12:00 - 57.49 47.8 20.27%
23:01:51,501  INFO WekaAgent:410 - Prediction: 2014-11-23 13:00 - 58.09 51.4 13.02%
23:01:51,502  INFO WekaAgent:410 - Prediction: 2014-11-23 14:00 - 62.69 51.1 22.68%
23:01:51,502  INFO WekaAgent:415 - Avg. error: 18.41%

23:01:52,511  INFO WekaAgent:410 - Prediction: 2014-11-23 15:00 - 55.25 49.9 10.72%
23:01:52,512  INFO WekaAgent:410 - Prediction: 2014-11-23 16:00 - 57.38 47.7 20.28%
23:01:52,512  INFO WekaAgent:410 - Prediction: 2014-11-23 17:00 - 58.09 45.1 28.79%
23:01:52,512  INFO WekaAgent:410 - Prediction: 2014-11-23 18:00 - 61.23 43.8 39.79%
23:01:52,512  INFO WekaAgent:415 - Avg. error: 24.9%

23:01:53,534  INFO WekaAgent:410 - Prediction: 2014-11-23 19:00 - 48.44 50.3 3.71%
23:01:53,535  INFO WekaAgent:410 - Prediction: 2014-11-23 20:00 - 50.19 47.8 4.99%
23:01:53,535  INFO WekaAgent:410 - Prediction: 2014-11-23 21:00 - 50.39 49.5 1.8%
23:01:53,535  INFO WekaAgent:410 - Prediction: 2014-11-23 22:00 - 53.35 46.1 15.73%
23:01:53,535  INFO WekaAgent:415 - Avg. error: 6.55%

23:01:54,601  INFO WekaAgent:410 - Prediction: 2014-11-23 23:00 - 48.21 42.1 14.51%
23:01:54,601  INFO WekaAgent:410 - Prediction: 2014-11-24 00:00 - 49.84 44.6 11.76%
23:01:54,601  INFO WekaAgent:410 - Prediction: 2014-11-24 01:00 - 51.78 29.7 74.34%
23:01:54,602  INFO WekaAgent:410 - Prediction: 2014-11-24 02:00 - 56.72 27.3 107.77%
23:01:54,602  INFO WekaAgent:415 - Avg. error: 52.1%

23:01:55,717  INFO WekaAgent:410 - Prediction: 2014-11-24 03:00 - 33.22 26.7 24.42%
23:01:55,718  INFO WekaAgent:410 - Prediction: 2014-11-24 04:00 - 43.41 27.6 57.27%
23:01:55,718  INFO WekaAgent:410 - Prediction: 2014-11-24 05:00 - 53.56 30.2 77.37%
23:01:55,718  INFO WekaAgent:410 - Prediction: 2014-11-24 06:00 - 57.41 22.2 158.62%
23:01:55,718  INFO WekaAgent:415 - Avg. error: 79.42%

23:01:56,852  INFO WekaAgent:410 - Prediction: 2014-11-24 07:00 - 12.74 27.2 53.16%
23:01:56,852  INFO WekaAgent:410 - Prediction: 2014-11-24 08:00 - 20.51 32.3 36.51%
23:01:56,852  INFO WekaAgent:410 - Prediction: 2014-11-24 09:00 - 31.71 37.8 16.12%
23:01:56,852  INFO WekaAgent:410 - Prediction: 2014-11-24 10:00 - 38.15 38.3 0.4%
23:01:56,852  INFO WekaAgent:415 - Avg. error: 26.55%

23:01:58,279  INFO WekaAgent:410 - Prediction: 2014-11-24 11:00 - 43.26 42.9 0.84%
23:01:58,279  INFO WekaAgent:410 - Prediction: 2014-11-24 12:00 - 46.87 43.3 8.25%
23:01:58,280  INFO WekaAgent:410 - Prediction: 2014-11-24 13:00 - 51.34 47.1 9%
23:01:58,280  INFO WekaAgent:410 - Prediction: 2014-11-24 14:00 - 58.17 57.6 0.99%
23:01:58,280  INFO WekaAgent:415 - Avg. error: 4.77%

23:01:59,444  INFO WekaAgent:410 - Prediction: 2014-11-24 15:00 - 67.98 70.9 4.11%
23:01:59,444  INFO WekaAgent:410 - Prediction: 2014-11-24 16:00 - 74.1 58.4 26.89%
23:01:59,444  INFO WekaAgent:410 - Prediction: 2014-11-24 17:00 - 75.09 69.4 8.2%
23:01:59,444  INFO WekaAgent:410 - Prediction: 2014-11-24 18:00 - 76.17 68.6 11.04%
23:01:59,444  INFO WekaAgent:415 - Avg. error: 12.56%

23:02:01,005  INFO WekaAgent:410 - Prediction: 2014-11-24 19:00 - 66.68 34.8 91.6%
23:02:01,006  INFO WekaAgent:410 - Prediction: 2014-11-24 20:00 - 63.88 40.4 58.13%
23:02:01,006  INFO WekaAgent:410 - Prediction: 2014-11-24 21:00 - 60.82 30.5 99.42%
23:02:01,007  INFO WekaAgent:410 - Prediction: 2014-11-24 22:00 - 59.32 30.4 95.13%
23:02:01,007  INFO WekaAgent:415 - Avg. error: 86.07%

23:02:02,734  INFO WekaAgent:410 - Prediction: 2014-11-24 23:00 - 33.76 23.4 44.28%
23:02:02,734  INFO WekaAgent:410 - Prediction: 2014-11-25 00:00 - 35.05 16.2 116.37%
23:02:02,735  INFO WekaAgent:410 - Prediction: 2014-11-25 01:00 - 34.71 16.9 105.38%
23:02:02,735  INFO WekaAgent:410 - Prediction: 2014-11-25 02:00 - 34.21 16 113.82%
23:02:02,735  INFO WekaAgent:415 - Avg. error: 94.96%

23:02:03,883  INFO WekaAgent:410 - Prediction: 2014-11-25 03:00 - 30.8 18.4 67.4%
23:02:03,883  INFO WekaAgent:410 - Prediction: 2014-11-25 04:00 - 39.57 25.9 52.77%
23:02:03,883  INFO WekaAgent:410 - Prediction: 2014-11-25 05:00 - 42.91 20 114.54%
23:02:03,884  INFO WekaAgent:410 - Prediction: 2014-11-25 06:00 - 39.15 26.6 47.18%
23:02:03,884  INFO WekaAgent:415 - Avg. error: 70.47%

23:02:04,854  INFO WekaAgent:410 - Prediction: 2014-11-25 07:00 - 40.26 33.3 20.9%
23:02:04,854  INFO WekaAgent:410 - Prediction: 2014-11-25 08:00 - 51.61 28.6 80.47%
23:02:04,854  INFO WekaAgent:410 - Prediction: 2014-11-25 09:00 - 59.08 31.2 89.37%
23:02:04,854  INFO WekaAgent:410 - Prediction: 2014-11-25 10:00 - 60.99 34.3 77.8%
23:02:04,854  INFO WekaAgent:415 - Avg. error: 67.13%

23:02:05,847  INFO WekaAgent:410 - Prediction: 2014-11-25 11:00 - 41.33 29.5 40.12%
23:02:05,847  INFO WekaAgent:410 - Prediction: 2014-11-25 12:00 - 44.57 32.1 38.86%
23:02:05,847  INFO WekaAgent:410 - Prediction: 2014-11-25 13:00 - 44.85 33.1 35.5%
23:02:05,847  INFO WekaAgent:410 - Prediction: 2014-11-25 14:00 - 44 35.5 23.95%
23:02:05,847  INFO WekaAgent:415 - Avg. error: 34.61%

23:02:06,817  INFO WekaAgent:410 - Prediction: 2014-11-25 15:00 - 43.98 36.6 20.18%
23:02:06,817  INFO WekaAgent:410 - Prediction: 2014-11-25 16:00 - 49.71 44.6 11.45%
23:02:06,817  INFO WekaAgent:410 - Prediction: 2014-11-25 17:00 - 51.66 55.2 6.41%
23:02:06,817  INFO WekaAgent:410 - Prediction: 2014-11-25 18:00 - 51.91 64 18.89%
23:02:06,817  INFO WekaAgent:415 - Avg. error: 14.23%

23:02:07,760  INFO WekaAgent:410 - Prediction: 2014-11-25 19:00 - 68.48 65.4 4.72%
23:02:07,760  INFO WekaAgent:410 - Prediction: 2014-11-25 20:00 - 69.49 57.1 21.7%
23:02:07,760  INFO WekaAgent:410 - Prediction: 2014-11-25 21:00 - 67.79 45.1 50.31%
23:02:07,760  INFO WekaAgent:410 - Prediction: 2014-11-25 22:00 - 66.42 51.9 27.97%
23:02:07,760  INFO WekaAgent:415 - Avg. error: 26.17%

23:02:08,761  INFO WekaAgent:410 - Prediction: 2014-11-25 23:00 - 60.07 51.7 16.2%
23:02:08,762  INFO WekaAgent:410 - Prediction: 2014-11-26 00:00 - 62.46 54.8 13.98%
23:02:08,762  INFO WekaAgent:410 - Prediction: 2014-11-26 01:00 - 63.16 75.7 16.56%
23:02:08,762  INFO WekaAgent:410 - Prediction: 2014-11-26 02:00 - 63.25 47.4 33.44%
23:02:08,762  INFO WekaAgent:415 - Avg. error: 20.04%

23:02:09,704  INFO WekaAgent:410 - Prediction: 2014-11-26 03:00 - 46.42 42.1 10.25%
23:02:09,704  INFO WekaAgent:410 - Prediction: 2014-11-26 04:00 - 50.57 34.6 46.14%
23:02:09,704  INFO WekaAgent:410 - Prediction: 2014-11-26 05:00 - 54.87 30.5 79.89%
23:02:09,704  INFO WekaAgent:410 - Prediction: 2014-11-26 06:00 - 59.12 28.7 106.01%
23:02:09,704  INFO WekaAgent:415 - Avg. error: 60.57%

23:02:10,634  INFO WekaAgent:410 - Prediction: 2014-11-26 07:00 - 43.24 44.9 3.7%
23:02:10,634  INFO WekaAgent:410 - Prediction: 2014-11-26 08:00 - 55.73 60.2 7.42%
23:02:10,634  INFO WekaAgent:410 - Prediction: 2014-11-26 09:00 - 59.12 60.1 1.62%
23:02:10,634  INFO WekaAgent:410 - Prediction: 2014-11-26 10:00 - 59.86 61.9 3.3%
23:02:10,634  INFO WekaAgent:415 - Avg. error: 4.01%

23:02:11,605  INFO WekaAgent:410 - Prediction: 2014-11-26 11:00 - 66.84 47.8 39.83%
23:02:11,605  INFO WekaAgent:410 - Prediction: 2014-11-26 12:00 - 65.87 75.5 12.76%
23:02:11,605  INFO WekaAgent:410 - Prediction: 2014-11-26 13:00 - 62.9 37.7 66.85%
23:02:11,605  INFO WekaAgent:410 - Prediction: 2014-11-26 14:00 - 60.27 55.2 9.18%
23:02:11,605  INFO WekaAgent:415 - Avg. error: 32.16%

23:02:12,540  INFO WekaAgent:410 - Prediction: 2014-11-26 15:00 - 64.63 56.9 13.58%
23:02:12,540  INFO WekaAgent:410 - Prediction: 2014-11-26 16:00 - 66.13 60 10.21%
23:02:12,540  INFO WekaAgent:410 - Prediction: 2014-11-26 17:00 - 66.13 65.8 0.5%
23:02:12,540  INFO WekaAgent:410 - Prediction: 2014-11-26 18:00 - 64.44 64.7 0.4%
23:02:12,540  INFO WekaAgent:415 - Avg. error: 6.18%

23:02:13,490  INFO WekaAgent:410 - Prediction: 2014-11-26 19:00 - 67.88 66.3 2.38%
23:02:13,491  INFO WekaAgent:410 - Prediction: 2014-11-26 20:00 - 68.6 51.7 32.69%
23:02:13,491  INFO WekaAgent:410 - Prediction: 2014-11-26 21:00 - 67.28 55.4 21.45%
23:02:13,491  INFO WekaAgent:410 - Prediction: 2014-11-26 22:00 - 65.77 63.7 3.25%
23:02:13,491  INFO WekaAgent:415 - Avg. error: 14.94%

23:02:14,457  INFO WekaAgent:410 - Prediction: 2014-11-26 23:00 - 68.25 71 3.87%
23:02:14,457  INFO WekaAgent:410 - Prediction: 2014-11-27 00:00 - 71.95 54.9 31.06%
23:02:14,457  INFO WekaAgent:410 - Prediction: 2014-11-27 01:00 - 72.96 53.9 35.36%
23:02:14,457  INFO WekaAgent:410 - Prediction: 2014-11-27 02:00 - 73.73 55 34.05%
23:02:14,457  INFO WekaAgent:415 - Avg. error: 26.09%

23:02:15,443  INFO WekaAgent:398 - Step: 24
23:02:15,445  INFO WekaAgent:410 - Prediction: 2014-11-27 03:00 - 57.65 57 1.15%
23:02:15,446  INFO WekaAgent:410 - Prediction: 2014-11-27 04:00 - 61.27 62.9 2.6%
23:02:15,446  INFO WekaAgent:410 - Prediction: 2014-11-27 05:00 - 66.82 61.7 8.29%
23:02:15,446  INFO WekaAgent:410 - Prediction: 2014-11-27 06:00 - 73.98 60.7 21.87%
23:02:15,446  INFO WekaAgent:415 - Avg. error: 8.48%

23:02:16,625  INFO WekaAgent:410 - Prediction: 2014-11-27 07:00 - 65.97 67.7 2.56%
23:02:16,626  INFO WekaAgent:410 - Prediction: 2014-11-27 08:00 - 70.9 57.6 23.09%
23:02:16,626  INFO WekaAgent:410 - Prediction: 2014-11-27 09:00 - 73.48 39.2 87.44%
23:02:16,626  INFO WekaAgent:410 - Prediction: 2014-11-27 10:00 - 76.24 44.7 70.56%
23:02:16,627  INFO WekaAgent:415 - Avg. error: 45.91%

23:02:17,845  INFO WekaAgent:410 - Prediction: 2014-11-27 11:00 - 52.73 44.8 17.71%
23:02:17,847  INFO WekaAgent:410 - Prediction: 2014-11-27 12:00 - 56.84 52.4 8.48%
23:02:17,848  INFO WekaAgent:410 - Prediction: 2014-11-27 13:00 - 60.71 42.1 44.2%
23:02:17,848  INFO WekaAgent:410 - Prediction: 2014-11-27 14:00 - 65.68 52.6 24.86%
23:02:17,848  INFO WekaAgent:415 - Avg. error: 23.81%

23:02:18,863  INFO WekaAgent:410 - Prediction: 2014-11-27 15:00 - 59.12 42.3 39.77%
23:02:18,863  INFO WekaAgent:410 - Prediction: 2014-11-27 16:00 - 62.55 45.5 37.46%
23:02:18,863  INFO WekaAgent:410 - Prediction: 2014-11-27 17:00 - 66.26 50.3 31.73%
23:02:18,863  INFO WekaAgent:410 - Prediction: 2014-11-27 18:00 - 71.94 48.5 48.33%
23:02:18,863  INFO WekaAgent:415 - Avg. error: 39.32%

23:02:19,874  INFO WekaAgent:410 - Prediction: 2014-11-27 19:00 - 51.01 44.7 14.11%
23:02:19,874  INFO WekaAgent:410 - Prediction: 2014-11-27 20:00 - 54.72 36.3 50.74%
23:02:19,875  INFO WekaAgent:410 - Prediction: 2014-11-27 21:00 - 58.01 41.6 39.44%
23:02:19,875  INFO WekaAgent:410 - Prediction: 2014-11-27 22:00 - 63.16 41.9 50.74%
23:02:19,875  INFO WekaAgent:415 - Avg. error: 38.76%

23:02:21,081  INFO WekaAgent:410 - Prediction: 2014-11-27 23:00 - 45.18 37.9 19.21%
23:02:21,081  INFO WekaAgent:410 - Prediction: 2014-11-28 00:00 - 49.5 37.1 33.43%
23:02:21,082  INFO WekaAgent:410 - Prediction: 2014-11-28 01:00 - 52.74 36.8 43.32%
23:02:21,082  INFO WekaAgent:410 - Prediction: 2014-11-28 02:00 - 56.7 29.5 92.22%
23:02:21,082  INFO WekaAgent:415 - Avg. error: 47.04%

23:02:22,179  INFO WekaAgent:410 - Prediction: 2014-11-28 03:00 - 35.39 24.1 46.83%
23:02:22,180  INFO WekaAgent:410 - Prediction: 2014-11-28 04:00 - 40.09 41.8 4.08%
23:02:22,180  INFO WekaAgent:410 - Prediction: 2014-11-28 05:00 - 42.13 58.2 27.61%
23:02:22,180  INFO WekaAgent:410 - Prediction: 2014-11-28 06:00 - 45.26 62.1 27.12%
23:02:22,180  INFO WekaAgent:415 - Avg. error: 26.41%

23:02:23,601  INFO WekaAgent:410 - Prediction: 2014-11-28 07:00 - 65.24 61.6 5.92%
23:02:23,601  INFO WekaAgent:410 - Prediction: 2014-11-28 08:00 - 68.38 52.3 30.75%
23:02:23,602  INFO WekaAgent:410 - Prediction: 2014-11-28 09:00 - 70.55 51.5 36.99%
23:02:23,602  INFO WekaAgent:410 - Prediction: 2014-11-28 10:00 - 72.34 50.6 42.96%
23:02:23,602  INFO WekaAgent:415 - Avg. error: 29.16%

23:02:24,652  INFO WekaAgent:410 - Prediction: 2014-11-28 11:00 - 54.96 40 37.41%
23:02:24,653  INFO WekaAgent:410 - Prediction: 2014-11-28 12:00 - 58.1 36.4 59.62%
23:02:24,653  INFO WekaAgent:410 - Prediction: 2014-11-28 13:00 - 60.69 33 83.91%
23:02:24,653  INFO WekaAgent:410 - Prediction: 2014-11-28 14:00 - 64.16 38.1 68.4%
23:02:24,653  INFO WekaAgent:415 - Avg. error: 62.34%

23:02:25,933  INFO WekaAgent:410 - Prediction: 2014-11-28 15:00 - 46.83 41.1 13.93%
23:02:25,933  INFO WekaAgent:410 - Prediction: 2014-11-28 16:00 - 53.29 46 15.85%
23:02:25,934  INFO WekaAgent:410 - Prediction: 2014-11-28 17:00 - 58.58 51.7 13.3%
23:02:25,934  INFO WekaAgent:410 - Prediction: 2014-11-28 18:00 - 63.63 49.6 28.28%
23:02:25,934  INFO WekaAgent:415 - Avg. error: 17.84%

23:02:27,526  INFO WekaAgent:410 - Prediction: 2014-11-28 19:00 - 55.21 47.4 16.47%
23:02:27,528  INFO WekaAgent:410 - Prediction: 2014-11-28 20:00 - 60.19 44.3 35.88%
23:02:27,529  INFO WekaAgent:410 - Prediction: 2014-11-28 21:00 - 62.57 45.5 37.52%
23:02:27,529  INFO WekaAgent:410 - Prediction: 2014-11-28 22:00 - 65.4 55.4 18.05%
23:02:27,529  INFO WekaAgent:415 - Avg. error: 26.98%

23:02:29,196  INFO WekaAgent:410 - Prediction: 2014-11-28 23:00 - 61.57 54.8 12.36%
23:02:29,196  INFO WekaAgent:410 - Prediction: 2014-11-29 00:00 - 67.52 46.4 45.53%
23:02:29,197  INFO WekaAgent:410 - Prediction: 2014-11-29 01:00 - 73.7 52.7 39.85%
23:02:29,197  INFO WekaAgent:410 - Prediction: 2014-11-29 02:00 - 77.99 51.9 50.28%
23:02:29,197  INFO WekaAgent:415 - Avg. error: 37%

23:02:31,017  INFO WekaAgent:410 - Prediction: 2014-11-29 03:00 - 60.26 55.9 7.81%
23:02:31,017  INFO WekaAgent:410 - Prediction: 2014-11-29 04:00 - 68.4 47 45.54%
23:02:31,017  INFO WekaAgent:410 - Prediction: 2014-11-29 05:00 - 74.23 41.1 80.62%
23:02:31,018  INFO WekaAgent:410 - Prediction: 2014-11-29 06:00 - 78.32 44.8 74.83%
23:02:31,018  INFO WekaAgent:415 - Avg. error: 52.2%

23:02:32,372  INFO WekaAgent:410 - Prediction: 2014-11-29 07:00 - 54.75 52.9 3.49%
23:02:32,372  INFO WekaAgent:410 - Prediction: 2014-11-29 08:00 - 62.59 54.4 15.05%
23:02:32,372  INFO WekaAgent:410 - Prediction: 2014-11-29 09:00 - 69.26 46.5 48.94%
23:02:32,372  INFO WekaAgent:410 - Prediction: 2014-11-29 10:00 - 74.17 48.5 52.92%
23:02:32,372  INFO WekaAgent:415 - Avg. error: 30.1%

23:02:33,586  INFO WekaAgent:410 - Prediction: 2014-11-29 11:00 - 57.91 51.8 11.8%
23:02:33,587  INFO WekaAgent:410 - Prediction: 2014-11-29 12:00 - 65.48 46.4 41.13%
23:02:33,587  INFO WekaAgent:410 - Prediction: 2014-11-29 13:00 - 71.96 44.2 62.8%
23:02:33,588  INFO WekaAgent:410 - Prediction: 2014-11-29 14:00 - 77.54 47.9 61.88%
23:02:33,588  INFO WekaAgent:415 - Avg. error: 44.4%

23:02:34,913  INFO WekaAgent:410 - Prediction: 2014-11-29 15:00 - 57.94 49.3 17.53%
23:02:34,913  INFO WekaAgent:410 - Prediction: 2014-11-29 16:00 - 66.85 51.3 30.31%
23:02:34,913  INFO WekaAgent:410 - Prediction: 2014-11-29 17:00 - 74.11 54.4 36.23%
23:02:34,913  INFO WekaAgent:410 - Prediction: 2014-11-29 18:00 - 79.16 66.2 19.58%
23:02:34,913  INFO WekaAgent:415 - Avg. error: 25.91%

23:02:36,077  INFO WekaAgent:410 - Prediction: 2014-11-29 19:00 - 73.19 69.5 5.31%
23:02:36,078  INFO WekaAgent:410 - Prediction: 2014-11-29 20:00 - 79.18 68.7 15.26%
23:02:36,078  INFO WekaAgent:410 - Prediction: 2014-11-29 21:00 - 82.7 70.7 16.98%
23:02:36,078  INFO WekaAgent:410 - Prediction: 2014-11-29 22:00 - 85.51 62.1 37.7%
23:02:36,078  INFO WekaAgent:415 - Avg. error: 18.81%

23:02:37,250  INFO WekaAgent:410 - Prediction: 2014-11-29 23:00 - 68.61 67.7 1.34%
23:02:37,251  INFO WekaAgent:410 - Prediction: 2014-11-30 00:00 - 71.62 59 21.38%
23:02:37,251  INFO WekaAgent:410 - Prediction: 2014-11-30 01:00 - 73.78 59.7 23.58%
23:02:37,251  INFO WekaAgent:410 - Prediction: 2014-11-30 02:00 - 76.88 58 32.55%
23:02:37,251  INFO WekaAgent:415 - Avg. error: 19.71%

23:02:38,222  INFO WekaAgent:410 - Prediction: 2014-11-30 03:00 - 62.41 55.6 12.24%
23:02:38,222  INFO WekaAgent:410 - Prediction: 2014-11-30 04:00 - 65.5 40.4 62.12%
23:02:38,222  INFO WekaAgent:410 - Prediction: 2014-11-30 05:00 - 68.84 39.3 75.17%
23:02:38,222  INFO WekaAgent:410 - Prediction: 2014-11-30 06:00 - 74.53 45.6 63.43%
23:02:38,222  INFO WekaAgent:415 - Avg. error: 53.24%

23:02:39,377  INFO WekaAgent:410 - Prediction: 2014-11-30 07:00 - 53.48 42.7 25.25%
23:02:39,377  INFO WekaAgent:410 - Prediction: 2014-11-30 08:00 - 57.96 47.8 21.25%
23:02:39,377  INFO WekaAgent:410 - Prediction: 2014-11-30 09:00 - 61.69 42.1 46.53%
23:02:39,377  INFO WekaAgent:410 - Prediction: 2014-11-30 10:00 - 67.64 47.1 43.62%
23:02:39,377  INFO WekaAgent:415 - Avg. error: 34.16%

23:02:40,442  INFO WekaAgent:410 - Prediction: 2014-11-30 11:00 - 54.88 39 40.71%
23:02:40,442  INFO WekaAgent:410 - Prediction: 2014-11-30 12:00 - 59.18 44 34.5%
23:02:40,442  INFO WekaAgent:410 - Prediction: 2014-11-30 13:00 - 63.14 44.9 40.62%
23:02:40,442  INFO WekaAgent:410 - Prediction: 2014-11-30 14:00 - 69.42 54.8 26.67%
23:02:40,442  INFO WekaAgent:415 - Avg. error: 35.63%

23:02:41,560  INFO WekaAgent:410 - Prediction: 2014-11-30 15:00 - 64.28 50.2 28.06%
23:02:41,561  INFO WekaAgent:410 - Prediction: 2014-11-30 16:00 - 69.67 59.6 16.9%
23:02:41,561  INFO WekaAgent:410 - Prediction: 2014-11-30 17:00 - 72.38 54.9 31.84%
23:02:41,561  INFO WekaAgent:410 - Prediction: 2014-11-30 18:00 - 76.06 57.2 32.97%
23:02:41,561  INFO WekaAgent:415 - Avg. error: 27.44%

23:02:42,517  INFO WekaAgent:410 - Prediction: 2014-11-30 19:00 - 62.66 55.8 12.29%
23:02:42,517  INFO WekaAgent:410 - Prediction: 2014-11-30 20:00 - 66.1 48.8 35.45%
23:02:42,517  INFO WekaAgent:410 - Prediction: 2014-11-30 21:00 - 67.63 53.3 26.89%
23:02:42,517  INFO WekaAgent:410 - Prediction: 2014-11-30 22:00 - 69.76 54.5 27.99%
23:02:42,517  INFO WekaAgent:415 - Avg. error: 25.66%

23:02:43,798  INFO WekaAgent:410 - Prediction: 2014-11-30 23:00 - 60.47 50.5 19.73%
23:02:43,798  INFO WekaAgent:410 - Prediction: 2014-12-01 00:00 - 65.7 54.3 20.99%
23:02:43,798  INFO WekaAgent:410 - Prediction: 2014-12-01 01:00 - 69.59 45.4 53.27%
23:02:43,798  INFO WekaAgent:410 - Prediction: 2014-12-01 02:00 - 73.8 37.1 98.92%
23:02:43,798  INFO WekaAgent:415 - Avg. error: 48.23%

23:02:44,845  INFO WekaAgent:410 - Prediction: 2014-12-01 03:00 - 40.53 38.1 6.38%
23:02:44,845  INFO WekaAgent:410 - Prediction: 2014-12-01 04:00 - 44.95 35.5 26.62%
23:02:44,845  INFO WekaAgent:410 - Prediction: 2014-12-01 05:00 - 49.48 34.6 43.01%
23:02:44,845  INFO WekaAgent:410 - Prediction: 2014-12-01 06:00 - 55.13 45.4 21.43%
23:02:44,845  INFO WekaAgent:415 - Avg. error: 24.36%

23:02:46,322  INFO WekaAgent:410 - Prediction: 2014-12-01 07:00 - 53.08 46.6 13.9%
23:02:46,322  INFO WekaAgent:410 - Prediction: 2014-12-01 08:00 - 59.19 45.1 31.25%
23:02:46,323  INFO WekaAgent:410 - Prediction: 2014-12-01 09:00 - 65.23 49.2 32.58%
23:02:46,323  INFO WekaAgent:410 - Prediction: 2014-12-01 10:00 - 71.76 46.1 55.67%
23:02:46,324  INFO WekaAgent:415 - Avg. error: 33.35%

23:02:48,094  INFO WekaAgent:410 - Prediction: 2014-12-01 11:00 - 51.3 43.2 18.75%
23:02:48,094  INFO WekaAgent:410 - Prediction: 2014-12-01 12:00 - 58.51 50.1 16.78%
23:02:48,094  INFO WekaAgent:410 - Prediction: 2014-12-01 13:00 - 66.13 43.1 53.43%
23:02:48,095  INFO WekaAgent:410 - Prediction: 2014-12-01 14:00 - 73.24 39.6 84.95%
23:02:48,095  INFO WekaAgent:415 - Avg. error: 43.48%

23:02:49,937  INFO WekaAgent:410 - Prediction: 2014-12-01 15:00 - 47.22 46.1 2.42%
23:02:49,937  INFO WekaAgent:410 - Prediction: 2014-12-01 16:00 - 55.9 53.1 5.27%
23:02:49,938  INFO WekaAgent:410 - Prediction: 2014-12-01 17:00 - 64.55 67.5 4.37%
23:02:49,938  INFO WekaAgent:410 - Prediction: 2014-12-01 18:00 - 72.11 63.2 14.09%
23:02:49,938  INFO WekaAgent:415 - Avg. error: 6.54%

23:02:53,514  INFO WekaAgent:410 - Prediction: 2014-12-01 23:00 - 55.07 51.6 6.72%
23:02:53,515  INFO WekaAgent:410 - Prediction: 2014-12-02 00:00 - 60.55 41.6 45.55%
23:02:53,515  INFO WekaAgent:410 - Prediction: 2014-12-02 01:00 - 65.15 43.3 50.47%
23:02:53,515  INFO WekaAgent:410 - Prediction: 2014-12-02 02:00 - 69 42.6 61.98%
23:02:53,515  INFO WekaAgent:415 - Avg. error: 41.18%

23:02:54,632  INFO WekaAgent:410 - Prediction: 2014-12-02 03:00 - 53.54 35.6 50.39%
23:02:54,633  INFO WekaAgent:410 - Prediction: 2014-12-02 04:00 - 58.83 37.3 57.72%
23:02:54,633  INFO WekaAgent:410 - Prediction: 2014-12-02 05:00 - 63.33 35.8 76.91%
23:02:54,633  INFO WekaAgent:410 - Prediction: 2014-12-02 06:00 - 68 40 70%
23:02:54,634  INFO WekaAgent:415 - Avg. error: 63.75%

23:02:55,866  INFO WekaAgent:410 - Prediction: 2014-12-02 07:00 - 47.6 39.5 20.5%
23:02:55,866  INFO WekaAgent:410 - Prediction: 2014-12-02 08:00 - 55.22 35.7 54.68%
23:02:55,866  INFO WekaAgent:410 - Prediction: 2014-12-02 09:00 - 61.72 41.3 49.44%
23:02:55,866  INFO WekaAgent:410 - Prediction: 2014-12-02 10:00 - 66.67 46 44.93%
23:02:55,866  INFO WekaAgent:415 - Avg. error: 42.39%

23:02:56,813  INFO WekaAgent:410 - Prediction: 2014-12-02 11:00 - 54.06 43.6 23.98%
23:02:56,813  INFO WekaAgent:410 - Prediction: 2014-12-02 12:00 - 61.93 42.8 44.7%
23:02:56,813  INFO WekaAgent:410 - Prediction: 2014-12-02 13:00 - 67.27 53.9 24.8%
23:02:56,813  INFO WekaAgent:410 - Prediction: 2014-12-02 14:00 - 70.87 50.4 40.62%
23:02:56,814  INFO WekaAgent:415 - Avg. error: 33.52%

23:02:57,828  INFO WekaAgent:410 - Prediction: 2014-12-02 15:00 - 57 51.3 11.12%
23:02:57,828  INFO WekaAgent:410 - Prediction: 2014-12-02 16:00 - 65.36 53.1 23.09%
23:02:57,828  INFO WekaAgent:410 - Prediction: 2014-12-02 17:00 - 70.75 57.1 23.9%
23:02:57,828  INFO WekaAgent:410 - Prediction: 2014-12-02 18:00 - 73.76 52.1 41.57%
23:02:57,828  INFO WekaAgent:415 - Avg. error: 24.92%

23:02:59,024  INFO WekaAgent:410 - Prediction: 2014-12-02 19:00 - 60.37 52.8 14.33%
23:02:59,024  INFO WekaAgent:410 - Prediction: 2014-12-02 20:00 - 69.17 51.3 34.83%
23:02:59,024  INFO WekaAgent:410 - Prediction: 2014-12-02 21:00 - 72.94 55.9 30.48%
23:02:59,024  INFO WekaAgent:410 - Prediction: 2014-12-02 22:00 - 74.49 54.3 37.18%
23:02:59,024  INFO WekaAgent:415 - Avg. error: 29.2%

23:02:59,970  INFO WekaAgent:410 - Prediction: 2014-12-02 23:00 - 61.03 53.8 13.44%
23:02:59,970  INFO WekaAgent:410 - Prediction: 2014-12-03 00:00 - 66.06 63.4 4.19%
23:02:59,970  INFO WekaAgent:410 - Prediction: 2014-12-03 01:00 - 67.99 58.2 16.83%
23:02:59,970  INFO WekaAgent:410 - Prediction: 2014-12-03 02:00 - 68.77 54.8 25.48%
23:02:59,970  INFO WekaAgent:415 - Avg. error: 14.99%

23:03:00,914  INFO WekaAgent:410 - Prediction: 2014-12-03 03:00 - 61.12 56.3 8.57%
23:03:00,914  INFO WekaAgent:410 - Prediction: 2014-12-03 04:00 - 65.62 57.9 13.34%
23:03:00,914  INFO WekaAgent:410 - Prediction: 2014-12-03 05:00 - 67.73 59.4 14.02%
23:03:00,914  INFO WekaAgent:410 - Prediction: 2014-12-03 06:00 - 68.68 62.8 9.36%
23:03:00,915  INFO WekaAgent:415 - Avg. error: 11.32%

23:03:01,859  INFO WekaAgent:410 - Prediction: 2014-12-03 07:00 - 70.75 70.2 0.78%
23:03:01,859  INFO WekaAgent:410 - Prediction: 2014-12-03 08:00 - 75.11 88.6 15.23%
23:03:01,859  INFO WekaAgent:410 - Prediction: 2014-12-03 09:00 - 76.26 82 7%
23:03:01,859  INFO WekaAgent:410 - Prediction: 2014-12-03 10:00 - 75.44 86.6 12.88%
23:03:01,859  INFO WekaAgent:415 - Avg. error: 8.97%

23:03:02,800  INFO WekaAgent:410 - Prediction: 2014-12-03 11:00 - 82.3 84 2.03%
23:03:02,800  INFO WekaAgent:410 - Prediction: 2014-12-03 12:00 - 78.05 85.5 8.72%
23:03:02,801  INFO WekaAgent:410 - Prediction: 2014-12-03 13:00 - 75.63 81.8 7.55%
23:03:02,801  INFO WekaAgent:410 - Prediction: 2014-12-03 14:00 - 73.43 81.9 10.35%
23:03:02,801  INFO WekaAgent:415 - Avg. error: 7.16%

23:03:03,735  INFO WekaAgent:410 - Prediction: 2014-12-03 15:00 - 78.24 78.4 0.2%
23:03:03,736  INFO WekaAgent:410 - Prediction: 2014-12-03 16:00 - 76.94 77.5 0.72%
23:03:03,736  INFO WekaAgent:410 - Prediction: 2014-12-03 17:00 - 75.58 85.3 11.4%
23:03:03,736  INFO WekaAgent:410 - Prediction: 2014-12-03 18:00 - 73.94 90.4 18.21%
23:03:03,736  INFO WekaAgent:415 - Avg. error: 7.63%

23:03:04,681  INFO WekaAgent:410 - Prediction: 2014-12-03 19:00 - 81.5 85 4.11%
23:03:04,681  INFO WekaAgent:410 - Prediction: 2014-12-03 20:00 - 79.1 80.2 1.37%
23:03:04,681  INFO WekaAgent:410 - Prediction: 2014-12-03 21:00 - 77.14 87.8 12.14%
23:03:04,681  INFO WekaAgent:410 - Prediction: 2014-12-03 22:00 - 74.78 84.4 11.4%
23:03:04,681  INFO WekaAgent:415 - Avg. error: 7.26%

23:03:05,630  INFO WekaAgent:410 - Prediction: 2014-12-03 23:00 - 78.87 78.2 0.86%
23:03:05,630  INFO WekaAgent:410 - Prediction: 2014-12-04 00:00 - 81.33 80.8 0.65%
23:03:05,630  INFO WekaAgent:410 - Prediction: 2014-12-04 01:00 - 83.05 89.1 6.79%
23:03:05,630  INFO WekaAgent:410 - Prediction: 2014-12-04 02:00 - 84.55 83.1 1.75%
23:03:05,631  INFO WekaAgent:415 - Avg. error: 2.51%

23:03:06,574  INFO WekaAgent:410 - Prediction: 2014-12-04 03:00 - 81.3 81.9 0.74%
23:03:06,574  INFO WekaAgent:410 - Prediction: 2014-12-04 04:00 - 84.81 71.6 18.45%
23:03:06,574  INFO WekaAgent:410 - Prediction: 2014-12-04 05:00 - 86.98 63.8 36.34%
23:03:06,574  INFO WekaAgent:410 - Prediction: 2014-12-04 06:00 - 89.26 69.6 28.25%
23:03:06,574  INFO WekaAgent:415 - Avg. error: 20.94%

23:03:07,552  INFO WekaAgent:410 - Prediction: 2014-12-04 07:00 - 75.9 72.8 4.26%
23:03:07,552  INFO WekaAgent:410 - Prediction: 2014-12-04 08:00 - 79.5 59.9 32.73%
23:03:07,552  INFO WekaAgent:410 - Prediction: 2014-12-04 09:00 - 80.81 60.6 33.35%
23:03:07,552  INFO WekaAgent:410 - Prediction: 2014-12-04 10:00 - 83.31 65.5 27.2%
23:03:07,553  INFO WekaAgent:415 - Avg. error: 24.38%

23:03:08,508  INFO WekaAgent:410 - Prediction: 2014-12-04 11:00 - 69.77 69.8 0.05%
23:03:08,508  INFO WekaAgent:410 - Prediction: 2014-12-04 12:00 - 71.93 73.6 2.26%
23:03:08,508  INFO WekaAgent:410 - Prediction: 2014-12-04 13:00 - 73.24 71.4 2.58%
23:03:08,508  INFO WekaAgent:410 - Prediction: 2014-12-04 14:00 - 76.12 74.5 2.17%
23:03:08,508  INFO WekaAgent:415 - Avg. error: 1.77%

23:03:09,463  INFO WekaAgent:410 - Prediction: 2014-12-04 15:00 - 78.86 68.1 15.8%
23:03:09,464  INFO WekaAgent:410 - Prediction: 2014-12-04 16:00 - 82.02 54 51.88%
23:03:09,464  INFO WekaAgent:410 - Prediction: 2014-12-04 17:00 - 82.46 67.2 22.7%
23:03:09,464  INFO WekaAgent:410 - Prediction: 2014-12-04 18:00 - 83.13 71 17.09%
23:03:09,464  INFO WekaAgent:415 - Avg. error: 26.87%

23:03:10,471  INFO WekaAgent:410 - Prediction: 2014-12-04 19:00 - 72.84 72 1.17%
23:03:10,471  INFO WekaAgent:410 - Prediction: 2014-12-04 20:00 - 73.12 78 6.26%
23:03:10,471  INFO WekaAgent:410 - Prediction: 2014-12-04 21:00 - 73.36 92.8 20.94%
23:03:10,471  INFO WekaAgent:410 - Prediction: 2014-12-04 22:00 - 75.45 97 22.21%
23:03:10,471  INFO WekaAgent:415 - Avg. error: 12.65%

23:03:11,886  INFO WekaAgent:410 - Prediction: 2014-12-04 23:00 - 90.15 88.3 2.1%
23:03:11,886  INFO WekaAgent:410 - Prediction: 2014-12-05 00:00 - 87.85 84.7 3.71%
23:03:11,886  INFO WekaAgent:410 - Prediction: 2014-12-05 01:00 - 82.17 95.6 14.05%
23:03:11,887  INFO WekaAgent:410 - Prediction: 2014-12-05 02:00 - 79.49 91.6 13.22%
23:03:11,888  INFO WekaAgent:415 - Avg. error: 8.27%

23:03:12,976  INFO WekaAgent:410 - Prediction: 2014-12-05 03:00 - 85.9 97 11.44%
23:03:12,976  INFO WekaAgent:410 - Prediction: 2014-12-05 04:00 - 82.59 95.8 13.79%
23:03:12,977  INFO WekaAgent:410 - Prediction: 2014-12-05 05:00 - 79 101.5 22.17%
23:03:12,977  INFO WekaAgent:410 - Prediction: 2014-12-05 06:00 - 78.28 101.8 23.11%
23:03:12,977  INFO WekaAgent:415 - Avg. error: 17.63%

23:03:14,091  INFO WekaAgent:410 - Prediction: 2014-12-05 07:00 - 94.64 110.3 14.2%
23:03:14,092  INFO WekaAgent:410 - Prediction: 2014-12-05 08:00 - 91.07 104.7 13.02%
23:03:14,092  INFO WekaAgent:410 - Prediction: 2014-12-05 09:00 - 86.18 74.5 15.68%
23:03:14,092  INFO WekaAgent:410 - Prediction: 2014-12-05 10:00 - 83.67 69.9 19.7%
23:03:14,092  INFO WekaAgent:415 - Avg. error: 15.65%

23:03:15,266  INFO WekaAgent:410 - Prediction: 2014-12-05 11:00 - 78.42 76.7 2.24%
23:03:15,267  INFO WekaAgent:410 - Prediction: 2014-12-05 12:00 - 78.02 79.3 1.61%
23:03:15,267  INFO WekaAgent:410 - Prediction: 2014-12-05 13:00 - 75.58 77.4 2.35%
23:03:15,267  INFO WekaAgent:410 - Prediction: 2014-12-05 14:00 - 76.27 75.8 0.62%
23:03:15,267  INFO WekaAgent:415 - Avg. error: 1.7%

23:03:16,258  INFO WekaAgent:410 - Prediction: 2014-12-05 15:00 - 82.2 72.9 12.76%
23:03:16,258  INFO WekaAgent:410 - Prediction: 2014-12-05 16:00 - 80.87 80.7 0.21%
23:03:16,258  INFO WekaAgent:410 - Prediction: 2014-12-05 17:00 - 76.71 82.8 7.36%
23:03:16,258  INFO WekaAgent:410 - Prediction: 2014-12-05 18:00 - 75.95 93 18.34%
23:03:16,258  INFO WekaAgent:415 - Avg. error: 9.67%

23:03:17,402  INFO WekaAgent:410 - Prediction: 2014-12-05 19:00 - 86.44 99.2 12.86%
23:03:17,402  INFO WekaAgent:410 - Prediction: 2014-12-05 20:00 - 69.85 104.2 32.96%
23:03:17,402  INFO WekaAgent:410 - Prediction: 2014-12-05 21:00 - 77.94 103 24.33%
23:03:17,402  INFO WekaAgent:410 - Prediction: 2014-12-05 22:00 - 77.65 113 31.29%
23:03:17,402  INFO WekaAgent:415 - Avg. error: 25.36%

23:03:18,399  INFO WekaAgent:410 - Prediction: 2014-12-05 23:00 - 106.35 121.4 12.4%
23:03:18,399  INFO WekaAgent:410 - Prediction: 2014-12-06 00:00 - 97.29 123.8 21.42%
23:03:18,399  INFO WekaAgent:410 - Prediction: 2014-12-06 01:00 - 92.43 126.7 27.05%
23:03:18,399  INFO WekaAgent:410 - Prediction: 2014-12-06 02:00 - 90.79 123.5 26.49%
23:03:18,399  INFO WekaAgent:415 - Avg. error: 21.84%

23:03:19,684  INFO WekaAgent:410 - Prediction: 2014-12-06 03:00 - 116.84 130 10.13%
23:03:19,684  INFO WekaAgent:410 - Prediction: 2014-12-06 04:00 - 109.52 127.4 14.03%
23:03:19,685  INFO WekaAgent:410 - Prediction: 2014-12-06 05:00 - 102.17 133.8 23.64%
23:03:19,685  INFO WekaAgent:410 - Prediction: 2014-12-06 06:00 - 97.47 119.8 18.64%
23:03:19,685  INFO WekaAgent:415 - Avg. error: 16.61%

23:03:20,952  INFO WekaAgent:410 - Prediction: 2014-12-06 07:00 - 116.4 128.7 9.56%
23:03:20,953  INFO WekaAgent:410 - Prediction: 2014-12-06 08:00 - 108.67 121.5 10.56%
23:03:20,953  INFO WekaAgent:410 - Prediction: 2014-12-06 09:00 - 100.55 92.4 8.82%
23:03:20,953  INFO WekaAgent:410 - Prediction: 2014-12-06 10:00 - 94.81 108.8 12.85%
23:03:20,953  INFO WekaAgent:415 - Avg. error: 10.45%

23:03:21,951  INFO WekaAgent:410 - Prediction: 2014-12-06 11:00 - 121.03 137.2 11.79%
23:03:21,951  INFO WekaAgent:410 - Prediction: 2014-12-06 12:00 - 100.16 145.9 31.35%
23:03:21,951  INFO WekaAgent:410 - Prediction: 2014-12-06 13:00 - 86.83 115.4 24.76%
23:03:21,951  INFO WekaAgent:410 - Prediction: 2014-12-06 14:00 - 84.09 137.8 38.98%
23:03:21,951  INFO WekaAgent:415 - Avg. error: 26.72%

23:03:23,110  INFO WekaAgent:410 - Prediction: 2014-12-06 15:00 - 118.4 126.4 6.33%
23:03:23,110  INFO WekaAgent:410 - Prediction: 2014-12-06 16:00 - 99.38 129.7 23.38%
23:03:23,111  INFO WekaAgent:410 - Prediction: 2014-12-06 17:00 - 91.28 160.7 43.2%
23:03:23,111  INFO WekaAgent:410 - Prediction: 2014-12-06 18:00 - 85.23 178.6 52.28%
23:03:23,111  INFO WekaAgent:415 - Avg. error: 31.3%

23:03:24,104  INFO WekaAgent:410 - Prediction: 2014-12-06 19:00 - 160.9 121.2 32.76%
23:03:24,104  INFO WekaAgent:410 - Prediction: 2014-12-06 20:00 - 151.2 104.8 44.28%
23:03:24,104  INFO WekaAgent:410 - Prediction: 2014-12-06 21:00 - 135.88 91.2 49%
23:03:24,104  INFO WekaAgent:410 - Prediction: 2014-12-06 22:00 - 115.14 61.2 88.13%
23:03:24,104  INFO WekaAgent:415 - Avg. error: 53.54%

23:03:25,081  INFO WekaAgent:410 - Prediction: 2014-12-06 23:00 - 61 48.7 25.27%
23:03:25,081  INFO WekaAgent:410 - Prediction: 2014-12-07 00:00 - 62.67 43.4 44.41%
23:03:25,081  INFO WekaAgent:410 - Prediction: 2014-12-07 01:00 - 62.9 32.3 94.73%
23:03:25,081  INFO WekaAgent:410 - Prediction: 2014-12-07 02:00 - 64.34 27 138.29%
23:03:25,081  INFO WekaAgent:415 - Avg. error: 75.68%

23:03:26,061  INFO WekaAgent:410 - Prediction: 2014-12-07 03:00 - 33.24 33.3 0.19%
23:03:26,062  INFO WekaAgent:410 - Prediction: 2014-12-07 04:00 - 35.68 33.4 6.83%
23:03:26,062  INFO WekaAgent:410 - Prediction: 2014-12-07 05:00 - 36.1 34.3 5.23%
23:03:26,062  INFO WekaAgent:410 - Prediction: 2014-12-07 06:00 - 38.48 34.5 11.55%
23:03:26,062  INFO WekaAgent:415 - Avg. error: 5.95%

23:03:27,091  INFO WekaAgent:410 - Prediction: 2014-12-07 07:00 - 44.12 48.3 8.66%
23:03:27,091  INFO WekaAgent:410 - Prediction: 2014-12-07 08:00 - 48.83 29.3 66.66%
23:03:27,091  INFO WekaAgent:410 - Prediction: 2014-12-07 09:00 - 50.12 20.3 146.92%
23:03:27,091  INFO WekaAgent:410 - Prediction: 2014-12-07 10:00 - 52.32 14.1 271.03%
23:03:27,091  INFO WekaAgent:415 - Avg. error: 123.32%

23:03:28,085  INFO WekaAgent:410 - Prediction: 2014-12-07 11:00 - 21.46 15.8 35.81%
23:03:28,085  INFO WekaAgent:410 - Prediction: 2014-12-07 12:00 - 23.28 30.4 23.41%
23:03:28,085  INFO WekaAgent:410 - Prediction: 2014-12-07 13:00 - 22.41 31.1 27.94%
23:03:28,085  INFO WekaAgent:410 - Prediction: 2014-12-07 14:00 - 23.55 37.3 36.88%
23:03:28,085  INFO WekaAgent:415 - Avg. error: 31.01%

23:03:29,077  INFO WekaAgent:410 - Prediction: 2014-12-07 15:00 - 46.54 35.2 32.21%
23:03:29,078  INFO WekaAgent:410 - Prediction: 2014-12-07 16:00 - 50.01 32 56.28%
23:03:29,078  INFO WekaAgent:410 - Prediction: 2014-12-07 17:00 - 50.84 39.7 28.05%
23:03:29,078  INFO WekaAgent:410 - Prediction: 2014-12-07 18:00 - 53.36 55.7 4.2%
23:03:29,078  INFO WekaAgent:415 - Avg. error: 30.19%

23:03:30,063  INFO WekaAgent:410 - Prediction: 2014-12-07 19:00 - 64.74 88.9 27.17%
23:03:30,063  INFO WekaAgent:410 - Prediction: 2014-12-07 20:00 - 65.83 76.1 13.5%
23:03:30,063  INFO WekaAgent:410 - Prediction: 2014-12-07 21:00 - 65.04 64.9 0.21%
23:03:30,063  INFO WekaAgent:410 - Prediction: 2014-12-07 22:00 - 64.54 62 4.1%
23:03:30,064  INFO WekaAgent:415 - Avg. error: 11.25%

23:03:32,002  INFO WekaAgent:410 - Prediction: 2014-12-08 03:00 - 28.83 23.9 20.63%
23:03:32,002  INFO WekaAgent:410 - Prediction: 2014-12-08 04:00 - 32.81 27.3 20.2%
23:03:32,002  INFO WekaAgent:410 - Prediction: 2014-12-08 05:00 - 36.57 23.5 55.61%
23:03:32,002  INFO WekaAgent:410 - Prediction: 2014-12-08 06:00 - 41.8 25.9 61.39%
23:03:32,002  INFO WekaAgent:415 - Avg. error: 39.46%

23:03:33,075  INFO WekaAgent:410 - Prediction: 2014-12-08 07:00 - 33.63 17.1 96.69%
23:03:33,075  INFO WekaAgent:410 - Prediction: 2014-12-08 08:00 - 37.35 15.2 145.73%
23:03:33,076  INFO WekaAgent:410 - Prediction: 2014-12-08 09:00 - 40.6 23.7 71.33%
23:03:33,076  INFO WekaAgent:410 - Prediction: 2014-12-08 10:00 - 44.25 18.4 140.48%
23:03:33,076  INFO WekaAgent:415 - Avg. error: 113.56%

23:03:34,069  INFO WekaAgent:410 - Prediction: 2014-12-08 11:00 - 21.75 23 5.44%
23:03:34,069  INFO WekaAgent:410 - Prediction: 2014-12-08 12:00 - 24.07 19.2 25.36%
23:03:34,069  INFO WekaAgent:410 - Prediction: 2014-12-08 13:00 - 25.84 19 35.98%
23:03:34,069  INFO WekaAgent:410 - Prediction: 2014-12-08 14:00 - 29.75 21.4 39%
23:03:34,069  INFO WekaAgent:415 - Avg. error: 26.45%

23:03:35,040  INFO WekaAgent:410 - Prediction: 2014-12-08 15:00 - 32.43 26.7 21.47%
23:03:35,041  INFO WekaAgent:410 - Prediction: 2014-12-08 16:00 - 42.52 38.3 11.03%
23:03:35,041  INFO WekaAgent:410 - Prediction: 2014-12-08 17:00 - 52.23 44.4 17.63%
23:03:35,041  INFO WekaAgent:410 - Prediction: 2014-12-08 18:00 - 62.25 38.4 62.1%
23:03:35,041  INFO WekaAgent:415 - Avg. error: 28.06%

23:03:36,019  INFO WekaAgent:410 - Prediction: 2014-12-08 19:00 - 48.92 58 15.66%
23:03:36,020  INFO WekaAgent:410 - Prediction: 2014-12-08 20:00 - 60.17 52.6 14.39%
23:03:36,020  INFO WekaAgent:410 - Prediction: 2014-12-08 21:00 - 66.95 49.9 34.16%
23:03:36,020  INFO WekaAgent:410 - Prediction: 2014-12-08 22:00 - 71.36 54.4 31.17%
23:03:36,020  INFO WekaAgent:415 - Avg. error: 23.84%

23:03:36,967  INFO WekaAgent:410 - Prediction: 2014-12-08 23:00 - 59.48 53.1 12.01%
23:03:36,967  INFO WekaAgent:410 - Prediction: 2014-12-09 00:00 - 63.81 70.6 9.62%
23:03:36,970  INFO WekaAgent:410 - Prediction: 2014-12-09 01:00 - 67.66 53.1 27.43%
23:03:36,970  INFO WekaAgent:410 - Prediction: 2014-12-09 02:00 - 69.73 49.9 39.75%
23:03:36,970  INFO WekaAgent:415 - Avg. error: 22.2%

23:03:38,366  INFO WekaAgent:410 - Prediction: 2014-12-09 03:00 - 57.31 43 33.27%
23:03:38,366  INFO WekaAgent:410 - Prediction: 2014-12-09 04:00 - 61.97 37.6 64.8%
23:03:38,366  INFO WekaAgent:410 - Prediction: 2014-12-09 05:00 - 64.88 46.3 40.13%
23:03:38,366  INFO WekaAgent:410 - Prediction: 2014-12-09 06:00 - 66.68 46.3 44.02%
23:03:38,366  INFO WekaAgent:415 - Avg. error: 45.55%

23:03:39,786  INFO WekaAgent:410 - Prediction: 2014-12-09 07:00 - 61.36 58.1 5.61%
23:03:39,786  INFO WekaAgent:410 - Prediction: 2014-12-09 08:00 - 69.39 56.6 22.59%
23:03:39,786  INFO WekaAgent:410 - Prediction: 2014-12-09 09:00 - 70.87 58.8 20.53%
23:03:39,786  INFO WekaAgent:410 - Prediction: 2014-12-09 10:00 - 70.62 56.9 24.11%
23:03:39,786  INFO WekaAgent:415 - Avg. error: 18.21%

23:03:41,256  INFO WekaAgent:410 - Prediction: 2014-12-09 11:00 - 65.36 61.5 6.28%
23:03:41,256  INFO WekaAgent:410 - Prediction: 2014-12-09 12:00 - 67.24 53.3 26.15%
23:03:41,256  INFO WekaAgent:410 - Prediction: 2014-12-09 13:00 - 65.28 54.8 19.13%
23:03:41,256  INFO WekaAgent:410 - Prediction: 2014-12-09 14:00 - 64.02 56.5 13.31%
23:03:41,256  INFO WekaAgent:415 - Avg. error: 16.22%

23:03:42,625  INFO WekaAgent:410 - Prediction: 2014-12-09 15:00 - 68.74 71.1 3.32%
23:03:42,625  INFO WekaAgent:410 - Prediction: 2014-12-09 16:00 - 75.65 102.8 26.42%
23:03:42,625  INFO WekaAgent:410 - Prediction: 2014-12-09 17:00 - 76.76 115.3 33.43%
23:03:42,625  INFO WekaAgent:410 - Prediction: 2014-12-09 18:00 - 77.78 111 29.93%
23:03:42,625  INFO WekaAgent:415 - Avg. error: 23.27%

23:03:43,654  INFO WekaAgent:410 - Prediction: 2014-12-09 19:00 - 103.87 128.3 19.04%
23:03:43,654  INFO WekaAgent:410 - Prediction: 2014-12-09 20:00 - 94.03 125.2 24.9%
23:03:43,654  INFO WekaAgent:410 - Prediction: 2014-12-09 21:00 - 85.98 118.7 27.57%
23:03:43,654  INFO WekaAgent:410 - Prediction: 2014-12-09 22:00 - 83.68 152 44.95%
23:03:43,654  INFO WekaAgent:415 - Avg. error: 29.11%

